{
  "project_info": {
    "project_number": "316200332648",
    "firebase_url": "https://jobbee-466ec.firebaseio.com",
    "project_id": "jobbee-466ec",
    "storage_bucket": "jobbee-466ec.appspot.com"
  },
  "client": [
    {
      "client_info": {
        "mobilesdk_app_id": "1:316200332648:android:ac5b48ebeb7b60dddcfadd",
        "android_client_info": {
          "package_name": "com.todoapp.flutter.firestore"
        }
      },
      "oauth_client": [
        {
          "client_id": "316200332648-g5nto41i2d3rnvi8pp6k0fmuvld6h03p.apps.googleusercontent.com",
          "client_type": 3
        }
      ],
      "api_key": [
        {
          "current_key": "AIzaSyA90K0c_asRSf48h9ABQ0knDO48RUQjSiI"
        }
      ],
      "services": {
        "appinvite_service": {
          "other_platform_oauth_client": [
            {
              "client_id": "316200332648-g5nto41i2d3rnvi8pp6k0fmuvld6h03p.apps.googleusercontent.com",
              "client_type": 3
            }
          ]
        }
      }
    }
  ],
  "configuration_version": "1"
}